…
### 2.1 Load in the line list data

This typically will be pulled using an API, but here we provide the
`syn_nssp_line_list` dataset as package data.

``` r
syn_nssp_line_list
```

    ## # A tibble: 25 × 8
    ##    C_Processed_BioSense_ID        CCDDParsed              DischargeDiagnosisMD…¹
    ##    <chr>                          <chr>                   <chr>                 
    ##  1 2024.02.03.23961E_2353110519   COUGH SENT BY UC | ;U0… {1};2024-02-03 13:45:…
    ##  2 2024.02.04.23970E_8016495577   COUGH COVID | ;U071;    {1};2024-02-04 10:29:…
    ##  3 2024.02.09.6146E_MM20716469698 VOMITING NAUSEA | ;U07… {1};2024-02-09 01:50:…
    ##  4 2024.02.08.23960I_3453027660   DIVERTICULITIS | ;R197… {1};2024-02-08 19:05:…
    ##  5 2024.02.02.6170E_HF221066059   PREGNANT COLD SYMPTOMS… {1};2024-02-02 01:15:…
    ##  6 2024.02.09.6148I_230936904054  NAUSEU WEAK BACK PAIN … {1};2024-02-09 16:01:…
    ##  7 2024.02.04.6139I_107268480     SHORTNESS OF BREATH | … {1};2024-02-04 09:17:…
    ##  8 2024.02.09.6131E_MP009028546   FLU LIKE SYMPTOMS | ;U… {1};2024-02-09 13:30:…
    ##  9 2024.02.03.30901E_15694614     SHORTNESS OF BREATH | … {1};2024-02-03 06:57:…
    ## 10 2024.02.05.23956E_315489587    FOOT PAIN FOOT INJURY … {1};2024-02-05 05:49:…
    ## # ℹ 15 more rows
    ## # ℹ abbreviated name: ¹​DischargeDiagnosisMDTUpdates
    ## # ℹ 5 more variables: DischargeDiagnosisUpdates <chr>, HasBeenAdmitted <dbl>,
    ## #   C_Visit_Date_Time <dttm>, c_race <chr>, sex <chr>
…
## 3 Pre-processing of larger synthetic dataset

We’ll start by loading in the synthetic reporting triangle dataframe,
which is also provided as package data.

``` r
syn_nssp_df
```

    ## # A tibble: 3,795 × 3
    ##    reference_date report_date count
    ##    <date>         <date>      <dbl>
    ##  1 2025-10-25     2025-10-25    194
    ##  2 2025-10-25     2025-10-26     54
    ##  3 2025-10-25     2025-10-27     26
    ##  4 2025-10-25     2025-10-28     13
    ##  5 2025-10-25     2025-10-29     12
    ##  6 2025-10-25     2025-10-30     13
    ##  7 2025-10-25     2025-10-31      5
    ##  8 2025-10-25     2025-11-04     14
    ##  9 2025-10-25     2025-11-05      9
    ## 10 2025-10-25     2025-11-06     14
    ## # ℹ 3,785 more rows
…
